{
  "data": {
    "scooters": [
      {
        "id": 33,
        "createdAt": "2021-04-10T11:48:58.095Z",
        "updatedAt": "2021-04-10T11:48:58.096Z",
        "longitude": "-122.41",
        "latitude": "37.78"
      },
      {
        "id": 34,
        "createdAt": "2021-04-10T11:48:58.119Z",
        "updatedAt": "2021-04-10T11:48:58.120Z",
        "longitude": "-122.437966",
        "latitude": "37.757793"
      }
    ]
  }
}
